{
  "data": [
    {
      "wav": "/mnt/w2g2/data_CRS/BaF1.1055H.1678278701.180827.1.1.wav",
      "labels": "Scrape"
    },
    {
      "wav": "/mnt/w2g2/data_CRS/BaF1.1055H.1678278701.180827.3.35.wav",
      "labels": "Scrape"
    },
    {
      "wav": "/mnt/w2g2/data_CRS/BaF1.1055R.805322778.180827.3.35.wav",
      "labels": "Scrape"
    },
    {
      "wav": "/mnt/w2g2/data_CRS/BaF2.1733H.1677983769.180828.2.21.wav",
      "labels": "Scrape"
    },
    {
      "wav": "/mnt/w2g2/data_CRS/BaF2.1733H.1677983769.180828.4.28.wav",
      "labels": "Raspberry"
    },
    {
      "wav": "/mnt/w2g2/data_CRS/BaF2.1733R.671907872.180828.2.23.wav",
      "labels": "Scrape"
    },
    {
      "wav": "/mnt/w2g2/data_CRS/BaF2.1733R.671907872.180828.3.30.wav",
      "labels": "Scrape"
    },
    {
      "wav": "/mnt/w2g2/data_CRS/BaF2.2333R.671907872.180828.4.31.wav",
      "labels": "Raspberry"
    },
    {
      "wav": "/mnt/w2g2/data_CRS/BaF3.0533R.671907872.180829.4.47.wav",
      "labels": "Knock"
    },
    {
      "wav": "/mnt/w2g2/data_CRS/BaF3.0915H.1678278701.180829.1.20.wav",
      "labels": "Scrape"
    },
    {
      "wav": "/mnt/w2g2/data_CRS/BaF3.0915H.1678278701.180829.4.52.wav",
      "labels": "Grunt"
    },
    {
      "wav": "/mnt/w2g2/data_CRS/BaF3.0915R.1677983769.180829.2.29.wav",
      "labels": "Scrape"
    },
    {
      "wav": "/mnt/w2g2/data_CRS/BaF4.1040R.805322778.180830.1.2.wav",
      "labels": "Knock"
    },
    {
      "wav": "/mnt/w2g2/data_CRS/BaF4.1040R.805322778.180830.3.37.wav",
      "labels": "Scrape"
    },
    {
      "wav": "/mnt/w2g2/data_CRS/BaF5.1330H.671907872.180831.3.18.wav",
      "labels": "Scrape"
    },
    {
      "wav": "/mnt/w2g2/data_CRS/BaF5.1330H.671907872.180831.5.49.wav",
      "labels": "Grunt"
    },
    {
      "wav": "/mnt/w2g2/data_CRS/BaN10.0927H.1677983769.180905.2.12.wav",
      "labels": "Scrape"
    },
    {
      "wav": "/mnt/w2g2/data_CRS/BaN10.0927H.1677983769.180905.5.39.wav",
      "labels": "Scrape"
    },
    {
      "wav": "/mnt/w2g2/data_CRS/BaN10.0927R.1678278701.180905.4.37.wav",
      "labels": "Scrape"
    },
    {
      "wav": "/mnt/w2g2/data_CRS/BaN10.0927R.1678278701.180905.5.56.wav",
      "labels": "Scrape"
    },
    {
      "wav": "/mnt/w2g2/data_CRS/BaN11.1731R.1677983769.180906.3.22.wav",
      "labels": "Croak"
    },
    {
      "wav": "/mnt/w2g2/data_CRS/BaN12.0529H.805322778.180907.4.50.wav",
      "labels": "Knock"
    },
    {
      "wav": "/mnt/w2g2/data_CRS/BaN12.0529R.1677983769.180907.4.44.wav",
      "labels": "Knock"
    },
    {
      "wav": "/mnt/w2g2/data_CRS/BaN12.0915H.805322778.180907.4.45.wav",
      "labels": "Scrape"
    },
    {
      "wav": "/mnt/w2g2/data_CRS/BaN12.0915H.805322778.180907.5.59.wav",
      "labels": "Scrape"
    },
    {
      "wav": "/mnt/w2g2/data_CRS/BaN12.0915R.1677983769.180907.2.21.wav",
      "labels": "Scrape"
    },
    {
      "wav": "/mnt/w2g2/data_CRS/BaN12.0915R.1677983769.180907.5.42.wav",
      "labels": "Scrape"
    },
    {
      "wav": "/mnt/w2g2/data_CRS/BoF1.1328H.1678278701.180827.4.28.wav",
      "labels": "Knock"
    },
    {
      "wav": "/mnt/w2g2/data_CRS/BoF2.0930D.1678278701.180828.5.58.wav",
      "labels": "Scrape"
    },
    {
      "wav": "/mnt/w2g2/data_CRS/BoF2.0930H.805322778.180828.1.4.wav",
      "labels": "Scrape"
    },
    {
      "wav": "/mnt/w2g2/data_CRS/BoF2.0930R.671907872.180828.4.48.wav",
      "labels": "Scrape"
    },
    {
      "wav": "/mnt/w2g2/data_CRS/BoF3.1205D.805322778.180829.1.5.wav",
      "labels": "Scrape"
    },
    {
      "wav": "/mnt/w2g2/data_CRS/BoF4.1300D.671907872.180830.1.21.wav",
      "labels": "Scrape"
    },
    {
      "wav": "/mnt/w2g2/data_CRS/BoF4.1300H.1677983769.180830.2.39.wav",
      "labels": "Purr"
    },
    {
      "wav": "/mnt/w2g2/data_CRS/BoF4.1300H.1677983769.180830.4.57.wav",
      "labels": "Purr"
    },
    {
      "wav": "/mnt/w2g2/data_CRS/BoF4.1733D.671907872.180830.4.40.wav",
      "labels": "Croak"
    },
    {
      "wav": "/mnt/w2g2/data_CRS/BoF5.0532D.671907872.180831.3.14.wav",
      "labels": "Growl"
    },
    {
      "wav": "/mnt/w2g2/data_CRS/BoF5.0940D.1677983769.180831.2.30.wav",
      "labels": "Growl"
    },
    {
      "wav": "/mnt/w2g2/data_CRS/BoN10.2359D.805322778.180905.3.42.wav",
      "labels": "Croak"
    },
    {
      "wav": "/mnt/w2g2/data_CRS/BoN10.2359D.805322778.180905.4.55.wav",
      "labels": "Croak"
    },
    {
      "wav": "/mnt/w2g2/data_CRS/BoN10.2359D.805322778.180905.5.58.wav",
      "labels": "Croak"
    },
    {
      "wav": "/mnt/w2g2/data_CRS/BoN11.0529D.805322778.180906.4.32.wav",
      "labels": "Growl"
    },
    {
      "wav": "/mnt/w2g2/data_CRS/BoN11.0529D.805322778.180906.5.50.wav",
      "labels": "Growl"
    },
    {
      "wav": "/mnt/w2g2/data_CRS/BoN11.0529H.1678278701.180906.4.28.wav",
      "labels": "Growl"
    },
    {
      "wav": "/mnt/w2g2/data_CRS/BoN11.0529R.1677983769.180906.1.4.wav",
      "labels": "Raspberry"
    },
    {
      "wav": "/mnt/w2g2/data_CRS/BoN11.1103D.1678278701.180906.5.52.wav",
      "labels": "Scrape"
    },
    {
      "wav": "/mnt/w2g2/data_CRS/BoN11.1103H.805322778.180906.2.15.wav",
      "labels": "Hum"
    },
    {
      "wav": "/mnt/w2g2/data_CRS/BoN11.1103H.805322778.180906.3.21.wav",
      "labels": "Raspberry"
    },
    {
      "wav": "/mnt/w2g2/data_CRS/BoN11.1200D.1678278701.180906.4.15.wav",
      "labels": "Scrape"
    },
    {
      "wav": "/mnt/w2g2/data_CRS/BoN11.1200H.805322778.180906.1.2.wav",
      "labels": "Scrape"
    },
    {
      "wav": "/mnt/w2g2/data_CRS/BoN11.1200R.1677983769.180906.1.1.wav",
      "labels": "Purr"
    },
    {
      "wav": "/mnt/w2g2/data_CRS/BoN12.1220D.1678278701.180907.1.9.wav",
      "labels": "Scrape"
    },
    {
      "wav": "/mnt/w2g2/data_CRS/BoN12.1220H.805322778.180907.3.10.wav",
      "labels": "Scrape"
    },
    {
      "wav": "/mnt/w2g2/data_CRS/BoN12.1220H.805322778.180907.4.36.wav",
      "labels": "Scrape"
    },
    {
      "wav": "/mnt/w2g2/data_CRS/BoN12.1220R.1677983769.180907.3.37.wav",
      "labels": "Knock"
    },
    {
      "wav": "/mnt/w2g2/data_CRS/SaF1.1733D.1677983769.180827.1.12.wav",
      "labels": "Scrape"
    },
    {
      "wav": "/mnt/w2g2/data_CRS/SaF1.1733D.1677983769.180827.3.23.wav",
      "labels": "Raspberry"
    },
    {
      "wav": "/mnt/w2g2/data_CRS/SaF1.1733R.805322778.180827.1.5.wav",
      "labels": "Grunt"
    },
    {
      "wav": "/mnt/w2g2/data_CRS/SaF1.1733R.805322778.180827.4.45.wav",
      "labels": "Knock"
    },
    {
      "wav": "/mnt/w2g2/data_CRS/SaF1.2333D.1677983769.180827.5.59.wav",
      "labels": "Croak"
    },
    {
      "wav": "/mnt/w2g2/data_CRS/SaF1.2333R.805322778.180827.3.25.wav",
      "labels": "Croak"
    },
    {
      "wav": "/mnt/w2g2/data_CRS/SaF1.2333R.805322778.180827.5.55.wav",
      "labels": "Croak"
    },
    {
      "wav": "/mnt/w2g2/data_CRS/SaF2.0534D.1677983769.180828.1.7.wav",
      "labels": "Croak"
    },
    {
      "wav": "/mnt/w2g2/data_CRS/SaF2.0534D.1677983769.180828.2.21.wav",
      "labels": "Croak"
    },
    {
      "wav": "/mnt/w2g2/data_CRS/SaF2.0534D.1677983769.180828.3.26.wav",
      "labels": "Knock"
    },
    {
      "wav": "/mnt/w2g2/data_CRS/SaF2.0534R.805322778.180828.4.37.wav",
      "labels": "Knock"
    },
    {
      "wav": "/mnt/w2g2/data_CRS/SaF2.1112D.1678278701.180828.5.49.wav",
      "labels": "Scrape"
    },
    {
      "wav": "/mnt/w2g2/data_CRS/SaF2.1112R.671907872.180828.5.49.wav",
      "labels": "Scrape"
    },
    {
      "wav": "/mnt/w2g2/data_CRS/SaF2.1203D.1678278701.180828.5.43.wav",
      "labels": "Grunt"
    },
    {
      "wav": "/mnt/w2g2/data_CRS/SaF3.1355D.805322778.180829.2.14.wav",
      "labels": "Grunt"
    },
    {
      "wav": "/mnt/w2g2/data_CRS/SaF3.1355D.805322778.180829.3.25.wav",
      "labels": "Whoop"
    },
    {
      "wav": "/mnt/w2g2/data_CRS/SaF3.1355R.1677983769.180829.4.43.wav",
      "labels": "Scrape"
    },
    {
      "wav": "/mnt/w2g2/data_CRS/SaF3.1733R.1677983769.180829.3.23.wav",
      "labels": "Grunt"
    },
    {
      "wav": "/mnt/w2g2/data_CRS/SaF3.2333D.805322778.180829.4.44.wav",
      "labels": "Croak"
    },
    {
      "wav": "/mnt/w2g2/data_CRS/SaF3.2333R.1677983769.180829.1.4.wav",
      "labels": "Croak"
    },
    {
      "wav": "/mnt/w2g2/data_CRS/SaF5.1125D.1677983769.180831.2.6.wav",
      "labels": "Grunt"
    },
    {
      "wav": "/mnt/w2g2/data_CRS/SaF5.1125R.1678278701.180831.1.5.wav",
      "labels": "Scrape"
    },
    {
      "wav": "/mnt/w2g2/data_CRS/SaF5.1125R.1678278701.180831.2.7.wav",
      "labels": "Scrape"
    },
    {
      "wav": "/mnt/w2g2/data_CRS/SaF5.1125R.1678278701.180831.5.33.wav",
      "labels": "Scrape"
    },
    {
      "wav": "/mnt/w2g2/data_CRS/SaF5.1202D.1677983769.180831.3.24.wav",
      "labels": "Purr"
    },
    {
      "wav": "/mnt/w2g2/data_CRS/SaF5.1202R.1678278701.180831.1.6.wav",
      "labels": "Scrape"
    },
    {
      "wav": "/mnt/w2g2/data_CRS/SaN11.0940R.1677983769.180906.1.1.wav",
      "labels": "Scrape"
    },
    {
      "wav": "/mnt/w2g2/data_CRS/SaN11.0940R.1677983769.180906.4.25.wav",
      "labels": "Raspberry"
    }
  ]
}