{
  "data": [
    {
      "wav": "/mnt/w2g2/data_CRS/BaF1.1055R.805322778.180827.3.35.wav",
      "labels": "Scrape",
      "second_task_labels": "Ba"
    },
    {
      "wav": "/mnt/w2g2/data_CRS/BaF2.1733R.671907872.180828.1.17.wav",
      "labels": "Scrape,Whoop,Raspberry",
      "second_task_labels": "Ba"
    },
    {
      "wav": "/mnt/w2g2/data_CRS/BaF2.1733R.671907872.180828.3.30.wav",
      "labels": "Scrape",
      "second_task_labels": "Ba"
    },
    {
      "wav": "/mnt/w2g2/data_CRS/BaF3.0533R.671907872.180829.1.1.wav",
      "labels": "Raspberry,Purr",
      "second_task_labels": "Ba"
    },
    {
      "wav": "/mnt/w2g2/data_CRS/BaF3.0533R.671907872.180829.3.45.wav",
      "labels": "Knock,Raspberry,Purr",
      "second_task_labels": "Ba"
    },
    {
      "wav": "/mnt/w2g2/data_CRS/BaF3.0915H.1678278701.180829.1.20.wav",
      "labels": "Scrape",
      "second_task_labels": "Ba"
    },
    {
      "wav": "/mnt/w2g2/data_CRS/BaF4.1040H.1677983769.180830.1.13.wav",
      "labels": "Knock,Scrape",
      "second_task_labels": "Ba"
    },
    {
      "wav": "/mnt/w2g2/data_CRS/BaF5.1330H.671907872.180831.3.18.wav",
      "labels": "Scrape",
      "second_task_labels": "Ba"
    },
    {
      "wav": "/mnt/w2g2/data_CRS/BaF5.1330R.1678278701.180831.1.8.wav",
      "labels": "Knock,Scrape,Raspberry,Purr",
      "second_task_labels": "Ba"
    },
    {
      "wav": "/mnt/w2g2/data_CRS/BaF5.1330R.1678278701.180831.3.25.wav",
      "labels": "Knock,Scrape",
      "second_task_labels": "Ba"
    },
    {
      "wav": "/mnt/w2g2/data_CRS/BaF5.1732R.1678278701.180831.2.12.wav",
      "labels": "Knock,Scrape",
      "second_task_labels": "Ba"
    },
    {
      "wav": "/mnt/w2g2/data_CRS/BaF5.2332R.1678278701.180831.4.30.wav",
      "labels": "Knock,Raspberry,Purr",
      "second_task_labels": "Ba"
    },
    {
      "wav": "/mnt/w2g2/data_CRS/BaN10.0927H.1677983769.180905.1.10.wav",
      "labels": "Knock,Scrape",
      "second_task_labels": "Ba"
    },
    {
      "wav": "/mnt/w2g2/data_CRS/BaN10.0927H.1677983769.180905.2.12.wav",
      "labels": "Scrape",
      "second_task_labels": "Ba"
    },
    {
      "wav": "/mnt/w2g2/data_CRS/BaN11.1315H.805322778.180906.4.38.wav",
      "labels": "Growl,Grunt,Croak",
      "second_task_labels": "Ba"
    },
    {
      "wav": "/mnt/w2g2/data_CRS/BaN11.1315H.805322778.180906.5.55.wav",
      "labels": "Knock,Grunt,Croak",
      "second_task_labels": "Ba"
    },
    {
      "wav": "/mnt/w2g2/data_CRS/BaN11.1731R.1677983769.180906.2.5.wav",
      "labels": "Knock,Grunt,Croak",
      "second_task_labels": "Ba"
    },
    {
      "wav": "/mnt/w2g2/data_CRS/BaN11.1731R.1677983769.180906.3.22.wav",
      "labels": "Croak",
      "second_task_labels": "Ba"
    },
    {
      "wav": "/mnt/w2g2/data_CRS/BaN11.2330R.1677983769.180906.4.42.wav",
      "labels": "Raspberry,Purr",
      "second_task_labels": "Ba"
    },
    {
      "wav": "/mnt/w2g2/data_CRS/BaN12.0529H.805322778.180907.1.24.wav",
      "labels": "Knock,Raspberry,Laugh",
      "second_task_labels": "Ba"
    },
    {
      "wav": "/mnt/w2g2/data_CRS/BaN12.0915R.1677983769.180907.2.21.wav",
      "labels": "Scrape",
      "second_task_labels": "Ba"
    },
    {
      "wav": "/mnt/w2g2/data_CRS/BoF1.1315R.805322778.180827.5.53.wav",
      "labels": "Knock,Scrape,Purr",
      "second_task_labels": "Bo"
    },
    {
      "wav": "/mnt/w2g2/data_CRS/BoF2.0930D.1678278701.180828.5.58.wav",
      "labels": "Scrape",
      "second_task_labels": "Bo"
    },
    {
      "wav": "/mnt/w2g2/data_CRS/BoF4.1300H.1677983769.180830.4.57.wav",
      "labels": "Purr",
      "second_task_labels": "Bo"
    },
    {
      "wav": "/mnt/w2g2/data_CRS/BoF4.2333D.671907872.180830.1.3.wav",
      "labels": "Raspberry,Croak",
      "second_task_labels": "Bo"
    },
    {
      "wav": "/mnt/w2g2/data_CRS/BoF5.0940H.671907872.180831.2.30.wav",
      "labels": "Grunt,Scrape",
      "second_task_labels": "Bo"
    },
    {
      "wav": "/mnt/w2g2/data_CRS/BoF5.0940R.1678278701.180831.1.7.wav",
      "labels": "Knock,Scrape",
      "second_task_labels": "Bo"
    },
    {
      "wav": "/mnt/w2g2/data_CRS/BoN10.1731R.1677983769.180905.2.20.wav",
      "labels": "Knock,Scrape",
      "second_task_labels": "Bo"
    },
    {
      "wav": "/mnt/w2g2/data_CRS/BoN10.1731R.1677983769.180905.4.42.wav",
      "labels": "Knock,Grunt,Croak",
      "second_task_labels": "Bo"
    },
    {
      "wav": "/mnt/w2g2/data_CRS/BoN10.2359H.1678278701.180905.4.54.wav",
      "labels": "Whoop,Croak",
      "second_task_labels": "Bo"
    },
    {
      "wav": "/mnt/w2g2/data_CRS/BoN11.0529R.1677983769.180906.1.4.wav",
      "labels": "Raspberry",
      "second_task_labels": "Bo"
    },
    {
      "wav": "/mnt/w2g2/data_CRS/BoN11.1103D.1678278701.180906.4.32.wav",
      "labels": "Scrape,Raspberry",
      "second_task_labels": "Bo"
    },
    {
      "wav": "/mnt/w2g2/data_CRS/BoN12.1220H.805322778.180907.3.10.wav",
      "labels": "Scrape",
      "second_task_labels": "Bo"
    },
    {
      "wav": "/mnt/w2g2/data_CRS/SaF1.1733D.1677983769.180827.1.12.wav",
      "labels": "Scrape",
      "second_task_labels": "Sa"
    },
    {
      "wav": "/mnt/w2g2/data_CRS/SaF2.0534R.805322778.180828.4.37.wav",
      "labels": "Knock",
      "second_task_labels": "Sa"
    }
  ]
}