{
  "data": [
    {
      "wav": "/mnt/w2g2/data_CRS/BaF2.2333R.671907872.180828.4.31.wav",
      "labels": "Raspberry",
      "second_task_labels": "Ba"
    },
    {
      "wav": "/mnt/w2g2/data_CRS/BaF3.0533H.1677983769.180829.4.53.wav",
      "labels": "Knock,Purr",
      "second_task_labels": "Ba"
    },
    {
      "wav": "/mnt/w2g2/data_CRS/BaF3.0533H.1677983769.180829.5.59.wav",
      "labels": "Knock,Purr",
      "second_task_labels": "Ba"
    },
    {
      "wav": "/mnt/w2g2/data_CRS/BaF3.0533R.671907872.180829.4.47.wav",
      "labels": "Knock",
      "second_task_labels": "Ba"
    },
    {
      "wav": "/mnt/w2g2/data_CRS/BaF3.0915R.1677983769.180829.5.56.wav",
      "labels": "Knock,Scrape,Raspberry",
      "second_task_labels": "Ba"
    },
    {
      "wav": "/mnt/w2g2/data_CRS/BaF4.1040H.1677983769.180830.3.32.wav",
      "labels": "Knock,Scrape",
      "second_task_labels": "Ba"
    },
    {
      "wav": "/mnt/w2g2/data_CRS/BaF5.1732H.671907872.180831.4.31.wav",
      "labels": "Raspberry,Purr",
      "second_task_labels": "Ba"
    },
    {
      "wav": "/mnt/w2g2/data_CRS/BaN10.0927R.1678278701.180905.4.37.wav",
      "labels": "Scrape",
      "second_task_labels": "Ba"
    },
    {
      "wav": "/mnt/w2g2/data_CRS/BaN11.1731H.805322778.180906.3.24.wav",
      "labels": "Grunt,Croak,Laugh",
      "second_task_labels": "Ba"
    },
    {
      "wav": "/mnt/w2g2/data_CRS/BaN11.1731R.1677983769.180906.1.2.wav",
      "labels": "Knock,Whoop,Croak",
      "second_task_labels": "Ba"
    },
    {
      "wav": "/mnt/w2g2/data_CRS/BaN11.2330H.805322778.180906.2.31.wav",
      "labels": "Raspberry,Purr",
      "second_task_labels": "Ba"
    },
    {
      "wav": "/mnt/w2g2/data_CRS/BaN11.2330H.805322778.180906.5.50.wav",
      "labels": "Raspberry,Purr",
      "second_task_labels": "Ba"
    },
    {
      "wav": "/mnt/w2g2/data_CRS/BaN12.0529H.805322778.180907.3.48.wav",
      "labels": "Knock,Grunt",
      "second_task_labels": "Ba"
    },
    {
      "wav": "/mnt/w2g2/data_CRS/BaN12.0915R.1677983769.180907.3.35.wav",
      "labels": "Scrape,Whoop,Croak",
      "second_task_labels": "Ba"
    },
    {
      "wav": "/mnt/w2g2/data_CRS/BoF2.0930H.805322778.180828.5.53.wav",
      "labels": "Scrape,Whoop",
      "second_task_labels": "Bo"
    },
    {
      "wav": "/mnt/w2g2/data_CRS/BoF3.1205H.1678278701.180829.3.30.wav",
      "labels": "Scrape,Laugh",
      "second_task_labels": "Bo"
    },
    {
      "wav": "/mnt/w2g2/data_CRS/BoF3.1205H.1678278701.180829.4.46.wav",
      "labels": "Grunt,Scrape",
      "second_task_labels": "Bo"
    },
    {
      "wav": "/mnt/w2g2/data_CRS/BoF3.1205R.1677983769.180829.5.58.wav",
      "labels": "Growl,Knock",
      "second_task_labels": "Bo"
    },
    {
      "wav": "/mnt/w2g2/data_CRS/BoF4.1300D.671907872.180830.1.21.wav",
      "labels": "Scrape",
      "second_task_labels": "Bo"
    },
    {
      "wav": "/mnt/w2g2/data_CRS/BoF4.1300H.1677983769.180830.5.59.wav",
      "labels": "Growl,Scrape",
      "second_task_labels": "Bo"
    },
    {
      "wav": "/mnt/w2g2/data_CRS/BoF4.1300R.805322778.180830.2.26.wav",
      "labels": "Scrape,Raspberry,Purr",
      "second_task_labels": "Bo"
    },
    {
      "wav": "/mnt/w2g2/data_CRS/BoF4.1733R.805322778.180830.2.10.wav",
      "labels": "Grunt,Croak",
      "second_task_labels": "Bo"
    },
    {
      "wav": "/mnt/w2g2/data_CRS/BoF4.2333H.1677983769.180830.4.42.wav",
      "labels": "Growl,Knock,Raspberry,Purr,Croak",
      "second_task_labels": "Bo"
    },
    {
      "wav": "/mnt/w2g2/data_CRS/BoF4.2333R.805322778.180830.1.2.wav",
      "labels": "Growl,Knock,Raspberry,Purr,Croak",
      "second_task_labels": "Bo"
    },
    {
      "wav": "/mnt/w2g2/data_CRS/BoF5.0532R.805322778.180831.1.2.wav",
      "labels": "Growl,Grunt,Croak",
      "second_task_labels": "Bo"
    },
    {
      "wav": "/mnt/w2g2/data_CRS/BoF5.0940H.671907872.180831.4.47.wav",
      "labels": "Growl,Grunt,Scrape",
      "second_task_labels": "Bo"
    },
    {
      "wav": "/mnt/w2g2/data_CRS/BoN10.1731H.1678278701.180905.1.5.wav",
      "labels": "Grunt,Raspberry",
      "second_task_labels": "Bo"
    },
    {
      "wav": "/mnt/w2g2/data_CRS/BoN10.1731R.1677983769.180905.5.58.wav",
      "labels": "Grunt,Croak",
      "second_task_labels": "Bo"
    },
    {
      "wav": "/mnt/w2g2/data_CRS/BoN11.0529D.805322778.180906.5.50.wav",
      "labels": "Growl",
      "second_task_labels": "Bo"
    },
    {
      "wav": "/mnt/w2g2/data_CRS/BoN11.0529H.1678278701.180906.4.28.wav",
      "labels": "Growl",
      "second_task_labels": "Bo"
    },
    {
      "wav": "/mnt/w2g2/data_CRS/BoN11.0529R.1677983769.180906.5.57.wav",
      "labels": "Growl,Hum",
      "second_task_labels": "Bo"
    },
    {
      "wav": "/mnt/w2g2/data_CRS/BoN11.1103D.1678278701.180906.5.52.wav",
      "labels": "Scrape",
      "second_task_labels": "Bo"
    },
    {
      "wav": "/mnt/w2g2/data_CRS/BoN11.1103H.805322778.180906.2.15.wav",
      "labels": "Hum",
      "second_task_labels": "Bo"
    },
    {
      "wav": "/mnt/w2g2/data_CRS/BoN11.1103R.1677983769.180906.2.20.wav",
      "labels": "Scrape,Purr",
      "second_task_labels": "Bo"
    },
    {
      "wav": "/mnt/w2g2/data_CRS/BoN11.1200R.1677983769.180906.2.3.wav",
      "labels": "Grunt,Purr,Hum",
      "second_task_labels": "Bo"
    },
    {
      "wav": "/mnt/w2g2/data_CRS/BoN12.1220D.1678278701.180907.4.39.wav",
      "labels": "Grunt,Scrape",
      "second_task_labels": "Bo"
    },
    {
      "wav": "/mnt/w2g2/data_CRS/SaF1.2333D.1677983769.180827.5.59.wav",
      "labels": "Croak",
      "second_task_labels": "Sa"
    },
    {
      "wav": "/mnt/w2g2/data_CRS/SaF2.0534D.1677983769.180828.1.7.wav",
      "labels": "Croak",
      "second_task_labels": "Sa"
    }
  ]
}