{
  "data": [
    {
      "wav": "/mnt/w2g2/data_CRS/BaF1.1055H.1678278701.180827.1.1.wav",
      "labels": "Scrape"
    },
    {
      "wav": "/mnt/w2g2/data_CRS/BaF1.1055H.1678278701.180827.3.35.wav",
      "labels": "Scrape"
    },
    {
      "wav": "/mnt/w2g2/data_CRS/BaF1.1055H.1678278701.180827.5.45.wav",
      "labels": "Grunt,Scrape"
    },
    {
      "wav": "/mnt/w2g2/data_CRS/BaF1.1055R.805322778.180827.3.35.wav",
      "labels": "Scrape"
    },
    {
      "wav": "/mnt/w2g2/data_CRS/BaF1.1055R.805322778.180827.4.37.wav",
      "labels": "Scrape,Laugh"
    },
    {
      "wav": "/mnt/w2g2/data_CRS/BaF2.1733H.1677983769.180828.2.21.wav",
      "labels": "Scrape"
    },
    {
      "wav": "/mnt/w2g2/data_CRS/BaF2.1733H.1677983769.180828.3.26.wav",
      "labels": "Growl,Scrape,Raspberry"
    },
    {
      "wav": "/mnt/w2g2/data_CRS/BaF2.1733R.671907872.180828.1.17.wav",
      "labels": "Scrape,Whoop,Raspberry"
    },
    {
      "wav": "/mnt/w2g2/data_CRS/BaF2.1733R.671907872.180828.3.30.wav",
      "labels": "Scrape"
    },
    {
      "wav": "/mnt/w2g2/data_CRS/BaF2.2333H.1677983769.180828.1.15.wav",
      "labels": "Scrape,Raspberry,Purr"
    },
    {
      "wav": "/mnt/w2g2/data_CRS/BaF2.2333H.1677983769.180828.5.51.wav",
      "labels": "Raspberry,Purr"
    },
    {
      "wav": "/mnt/w2g2/data_CRS/BaF2.2333R.671907872.180828.4.31.wav",
      "labels": "Raspberry"
    },
    {
      "wav": "/mnt/w2g2/data_CRS/BaF3.0533H.1677983769.180829.4.53.wav",
      "labels": "Knock,Purr"
    },
    {
      "wav": "/mnt/w2g2/data_CRS/BaF3.0533H.1677983769.180829.5.59.wav",
      "labels": "Knock,Purr"
    },
    {
      "wav": "/mnt/w2g2/data_CRS/BaF3.0533R.671907872.180829.1.1.wav",
      "labels": "Raspberry,Purr"
    },
    {
      "wav": "/mnt/w2g2/data_CRS/BaF3.0533R.671907872.180829.3.45.wav",
      "labels": "Knock,Raspberry,Purr"
    },
    {
      "wav": "/mnt/w2g2/data_CRS/BaF3.0533R.671907872.180829.4.47.wav",
      "labels": "Knock"
    },
    {
      "wav": "/mnt/w2g2/data_CRS/BaF3.0915H.1678278701.180829.1.20.wav",
      "labels": "Scrape"
    },
    {
      "wav": "/mnt/w2g2/data_CRS/BaF3.0915H.1678278701.180829.2.30.wav",
      "labels": "Grunt,Scrape"
    },
    {
      "wav": "/mnt/w2g2/data_CRS/BaF3.0915H.1678278701.180829.4.52.wav",
      "labels": "Grunt"
    },
    {
      "wav": "/mnt/w2g2/data_CRS/BaF3.0915R.1677983769.180829.2.29.wav",
      "labels": "Scrape"
    },
    {
      "wav": "/mnt/w2g2/data_CRS/BaF3.0915R.1677983769.180829.3.31.wav",
      "labels": "Scrape,Purr"
    },
    {
      "wav": "/mnt/w2g2/data_CRS/BaF3.0915R.1677983769.180829.5.56.wav",
      "labels": "Knock,Scrape,Raspberry"
    },
    {
      "wav": "/mnt/w2g2/data_CRS/BaF4.1040H.1677983769.180830.1.13.wav",
      "labels": "Knock,Scrape"
    },
    {
      "wav": "/mnt/w2g2/data_CRS/BaF4.1040H.1677983769.180830.3.32.wav",
      "labels": "Knock,Scrape"
    },
    {
      "wav": "/mnt/w2g2/data_CRS/BaF4.1040R.805322778.180830.3.37.wav",
      "labels": "Scrape"
    },
    {
      "wav": "/mnt/w2g2/data_CRS/BaF4.1040R.805322778.180830.5.55.wav",
      "labels": "Knock,Scrape"
    },
    {
      "wav": "/mnt/w2g2/data_CRS/BaF5.1330H.671907872.180831.3.18.wav",
      "labels": "Scrape"
    },
    {
      "wav": "/mnt/w2g2/data_CRS/BaF5.1330H.671907872.180831.5.49.wav",
      "labels": "Grunt"
    },
    {
      "wav": "/mnt/w2g2/data_CRS/BaF5.1330R.1678278701.180831.1.8.wav",
      "labels": "Knock,Scrape,Raspberry,Purr"
    },
    {
      "wav": "/mnt/w2g2/data_CRS/BaF5.1330R.1678278701.180831.2.13.wav",
      "labels": "Knock,Scrape,Raspberry"
    },
    {
      "wav": "/mnt/w2g2/data_CRS/BaF5.1330R.1678278701.180831.3.25.wav",
      "labels": "Knock,Scrape"
    },
    {
      "wav": "/mnt/w2g2/data_CRS/BaF5.1732H.671907872.180831.4.31.wav",
      "labels": "Raspberry,Purr"
    },
    {
      "wav": "/mnt/w2g2/data_CRS/BaF5.1732H.671907872.180831.5.52.wav",
      "labels": "Grunt,Raspberry,Purr"
    },
    {
      "wav": "/mnt/w2g2/data_CRS/BaF5.1732R.1678278701.180831.1.10.wav",
      "labels": "Knock"
    },
    {
      "wav": "/mnt/w2g2/data_CRS/BaF5.1732R.1678278701.180831.2.12.wav",
      "labels": "Knock,Scrape"
    },
    {
      "wav": "/mnt/w2g2/data_CRS/BaF5.1732R.1678278701.180831.3.27.wav",
      "labels": "Knock,Scrape,Purr"
    },
    {
      "wav": "/mnt/w2g2/data_CRS/BaF5.2332H.671907872.180831.3.35.wav",
      "labels": "Raspberry,Purr"
    },
    {
      "wav": "/mnt/w2g2/data_CRS/BaF5.2332H.671907872.180831.4.39.wav",
      "labels": "Raspberry,Purr"
    },
    {
      "wav": "/mnt/w2g2/data_CRS/BaF5.2332R.1678278701.180831.4.30.wav",
      "labels": "Knock,Raspberry,Purr"
    },
    {
      "wav": "/mnt/w2g2/data_CRS/BaN10.0927H.1677983769.180905.1.10.wav",
      "labels": "Knock,Scrape"
    },
    {
      "wav": "/mnt/w2g2/data_CRS/BaN10.0927H.1677983769.180905.2.12.wav",
      "labels": "Scrape"
    },
    {
      "wav": "/mnt/w2g2/data_CRS/BaN10.0927H.1677983769.180905.5.39.wav",
      "labels": "Scrape"
    },
    {
      "wav": "/mnt/w2g2/data_CRS/BaN10.0927R.1678278701.180905.4.37.wav",
      "labels": "Scrape"
    },
    {
      "wav": "/mnt/w2g2/data_CRS/BaN10.0927R.1678278701.180905.5.56.wav",
      "labels": "Scrape"
    },
    {
      "wav": "/mnt/w2g2/data_CRS/BaN11.1315H.805322778.180906.3.35.wav",
      "labels": "Knock"
    },
    {
      "wav": "/mnt/w2g2/data_CRS/BaN11.1315H.805322778.180906.4.38.wav",
      "labels": "Growl,Grunt,Croak"
    },
    {
      "wav": "/mnt/w2g2/data_CRS/BaN11.1315H.805322778.180906.5.55.wav",
      "labels": "Knock,Grunt,Croak"
    },
    {
      "wav": "/mnt/w2g2/data_CRS/BaN11.1315R.1677983769.180906.3.39.wav",
      "labels": "Scrape"
    },
    {
      "wav": "/mnt/w2g2/data_CRS/BaN11.1315R.1677983769.180906.5.52.wav",
      "labels": "Grunt,Scrape"
    },
    {
      "wav": "/mnt/w2g2/data_CRS/BaN11.1731H.805322778.180906.2.17.wav",
      "labels": "Knock,Grunt,Croak"
    },
    {
      "wav": "/mnt/w2g2/data_CRS/BaN11.1731H.805322778.180906.3.24.wav",
      "labels": "Grunt,Croak,Laugh"
    },
    {
      "wav": "/mnt/w2g2/data_CRS/BaN11.1731H.805322778.180906.4.27.wav",
      "labels": "Knock,Grunt"
    },
    {
      "wav": "/mnt/w2g2/data_CRS/BaN11.1731R.1677983769.180906.1.2.wav",
      "labels": "Knock,Whoop,Croak"
    },
    {
      "wav": "/mnt/w2g2/data_CRS/BaN11.1731R.1677983769.180906.2.5.wav",
      "labels": "Knock,Grunt,Croak"
    },
    {
      "wav": "/mnt/w2g2/data_CRS/BaN11.1731R.1677983769.180906.3.22.wav",
      "labels": "Croak"
    },
    {
      "wav": "/mnt/w2g2/data_CRS/BaN11.2330H.805322778.180906.2.31.wav",
      "labels": "Raspberry,Purr"
    },
    {
      "wav": "/mnt/w2g2/data_CRS/BaN11.2330H.805322778.180906.4.46.wav",
      "labels": "Purr"
    },
    {
      "wav": "/mnt/w2g2/data_CRS/BaN11.2330H.805322778.180906.5.50.wav",
      "labels": "Raspberry,Purr"
    },
    {
      "wav": "/mnt/w2g2/data_CRS/BaN11.2330R.1677983769.180906.4.42.wav",
      "labels": "Raspberry,Purr"
    },
    {
      "wav": "/mnt/w2g2/data_CRS/BaN11.2330R.1677983769.180906.5.58.wav",
      "labels": "Growl,Grunt,Raspberry,Laugh"
    },
    {
      "wav": "/mnt/w2g2/data_CRS/BaN12.0529H.805322778.180907.1.24.wav",
      "labels": "Knock,Raspberry,Laugh"
    },
    {
      "wav": "/mnt/w2g2/data_CRS/BaN12.0529H.805322778.180907.3.48.wav",
      "labels": "Knock,Grunt"
    },
    {
      "wav": "/mnt/w2g2/data_CRS/BaN12.0529H.805322778.180907.4.50.wav",
      "labels": "Knock"
    },
    {
      "wav": "/mnt/w2g2/data_CRS/BaN12.0529R.1677983769.180907.1.6.wav",
      "labels": "Whoop,Raspberry,Laugh"
    },
    {
      "wav": "/mnt/w2g2/data_CRS/BaN12.0529R.1677983769.180907.5.46.wav",
      "labels": "Growl,Knock,Croak"
    },
    {
      "wav": "/mnt/w2g2/data_CRS/BaN12.0915H.805322778.180907.2.6.wav",
      "labels": "Scrape,Purr"
    },
    {
      "wav": "/mnt/w2g2/data_CRS/BaN12.0915H.805322778.180907.4.45.wav",
      "labels": "Scrape"
    },
    {
      "wav": "/mnt/w2g2/data_CRS/BaN12.0915R.1677983769.180907.2.21.wav",
      "labels": "Scrape"
    },
    {
      "wav": "/mnt/w2g2/data_CRS/BaN12.0915R.1677983769.180907.3.35.wav",
      "labels": "Scrape,Whoop,Croak"
    },
    {
      "wav": "/mnt/w2g2/data_CRS/BaN12.0915R.1677983769.180907.5.42.wav",
      "labels": "Scrape"
    },
    {
      "wav": "/mnt/w2g2/data_CRS/BoF1.1315R.805322778.180827.5.53.wav",
      "labels": "Knock,Scrape,Purr"
    },
    {
      "wav": "/mnt/w2g2/data_CRS/BoF2.0930D.1678278701.180828.5.58.wav",
      "labels": "Scrape"
    },
    {
      "wav": "/mnt/w2g2/data_CRS/BoF2.0930H.805322778.180828.1.4.wav",
      "labels": "Scrape"
    },
    {
      "wav": "/mnt/w2g2/data_CRS/BoF2.0930H.805322778.180828.3.28.wav",
      "labels": "Growl,Knock,Scrape"
    },
    {
      "wav": "/mnt/w2g2/data_CRS/BoF2.0930H.805322778.180828.5.53.wav",
      "labels": "Scrape,Whoop"
    },
    {
      "wav": "/mnt/w2g2/data_CRS/BoF2.0930R.671907872.180828.4.48.wav",
      "labels": "Scrape"
    },
    {
      "wav": "/mnt/w2g2/data_CRS/BoF2.0930R.671907872.180828.5.58.wav",
      "labels": "Growl,Knock"
    },
    {
      "wav": "/mnt/w2g2/data_CRS/BoF3.1205D.805322778.180829.1.5.wav",
      "labels": "Scrape"
    },
    {
      "wav": "/mnt/w2g2/data_CRS/BoF3.1205H.1678278701.180829.3.30.wav",
      "labels": "Scrape,Laugh"
    },
    {
      "wav": "/mnt/w2g2/data_CRS/BoF3.1205H.1678278701.180829.4.46.wav",
      "labels": "Grunt,Scrape"
    },
    {
      "wav": "/mnt/w2g2/data_CRS/BoF3.1205R.1677983769.180829.5.58.wav",
      "labels": "Growl,Knock"
    },
    {
      "wav": "/mnt/w2g2/data_CRS/BoF4.1300D.671907872.180830.1.21.wav",
      "labels": "Scrape"
    },
    {
      "wav": "/mnt/w2g2/data_CRS/BoF4.1300H.1677983769.180830.2.39.wav",
      "labels": "Purr"
    },
    {
      "wav": "/mnt/w2g2/data_CRS/BoF4.1300H.1677983769.180830.4.57.wav",
      "labels": "Purr"
    },
    {
      "wav": "/mnt/w2g2/data_CRS/BoF4.1300H.1677983769.180830.5.59.wav",
      "labels": "Growl,Scrape"
    },
    {
      "wav": "/mnt/w2g2/data_CRS/BoF4.1300R.805322778.180830.2.26.wav",
      "labels": "Scrape,Raspberry,Purr"
    },
    {
      "wav": "/mnt/w2g2/data_CRS/BoF4.1300R.805322778.180830.3.28.wav",
      "labels": "Scrape,Purr"
    },
    {
      "wav": "/mnt/w2g2/data_CRS/BoF4.1733H.1677983769.180830.1.7.wav",
      "labels": "Growl,Knock,Raspberry,Croak"
    },
    {
      "wav": "/mnt/w2g2/data_CRS/BoF4.1733H.1677983769.180830.2.21.wav",
      "labels": "Growl,Knock,Croak"
    },
    {
      "wav": "/mnt/w2g2/data_CRS/BoF4.1733R.805322778.180830.2.10.wav",
      "labels": "Grunt,Croak"
    },
    {
      "wav": "/mnt/w2g2/data_CRS/BoF4.2333D.671907872.180830.1.3.wav",
      "labels": "Raspberry,Croak"
    },
    {
      "wav": "/mnt/w2g2/data_CRS/BoF4.2333D.671907872.180830.3.32.wav",
      "labels": "Raspberry,Croak"
    },
    {
      "wav": "/mnt/w2g2/data_CRS/BoF4.2333D.671907872.180830.4.51.wav",
      "labels": "Raspberry,Croak"
    },
    {
      "wav": "/mnt/w2g2/data_CRS/BoF4.2333H.1677983769.180830.2.38.wav",
      "labels": "Knock,Raspberry,Purr,Croak"
    },
    {
      "wav": "/mnt/w2g2/data_CRS/BoF4.2333H.1677983769.180830.4.42.wav",
      "labels": "Growl,Knock,Raspberry,Purr,Croak"
    },
    {
      "wav": "/mnt/w2g2/data_CRS/BoF4.2333R.805322778.180830.1.2.wav",
      "labels": "Growl,Knock,Raspberry,Purr,Croak"
    },
    {
      "wav": "/mnt/w2g2/data_CRS/BoF5.0532H.1677983769.180831.3.37.wav",
      "labels": "Growl,Knock,Whoop,Purr"
    },
    {
      "wav": "/mnt/w2g2/data_CRS/BoF5.0532H.1677983769.180831.5.48.wav",
      "labels": "Knock,Raspberry,Purr"
    },
    {
      "wav": "/mnt/w2g2/data_CRS/BoF5.0532R.805322778.180831.1.2.wav",
      "labels": "Growl,Grunt,Croak"
    },
    {
      "wav": "/mnt/w2g2/data_CRS/BoF5.0940H.671907872.180831.2.30.wav",
      "labels": "Grunt,Scrape"
    },
    {
      "wav": "/mnt/w2g2/data_CRS/BoF5.0940H.671907872.180831.3.36.wav",
      "labels": "Growl,Scrape,Raspberry"
    },
    {
      "wav": "/mnt/w2g2/data_CRS/BoF5.0940H.671907872.180831.4.47.wav",
      "labels": "Growl,Grunt,Scrape"
    },
    {
      "wav": "/mnt/w2g2/data_CRS/BoF5.0940R.1678278701.180831.1.7.wav",
      "labels": "Knock,Scrape"
    },
    {
      "wav": "/mnt/w2g2/data_CRS/BoF5.0940R.1678278701.180831.3.41.wav",
      "labels": "Knock,Grunt"
    },
    {
      "wav": "/mnt/w2g2/data_CRS/BoF5.0940R.1678278701.180831.5.57.wav",
      "labels": "Growl,Grunt,Scrape"
    },
    {
      "wav": "/mnt/w2g2/data_CRS/BoN10.1731D.805322778.180905.1.7.wav",
      "labels": "Grunt,Croak"
    },
    {
      "wav": "/mnt/w2g2/data_CRS/BoN10.1731H.1678278701.180905.1.5.wav",
      "labels": "Grunt,Raspberry"
    },
    {
      "wav": "/mnt/w2g2/data_CRS/BoN10.1731H.1678278701.180905.2.9.wav",
      "labels": "Whoop,Raspberry"
    },
    {
      "wav": "/mnt/w2g2/data_CRS/BoN10.1731H.1678278701.180905.3.29.wav",
      "labels": "Knock,Grunt,Whoop,Purr"
    },
    {
      "wav": "/mnt/w2g2/data_CRS/BoN10.1731R.1677983769.180905.2.20.wav",
      "labels": "Knock,Scrape"
    },
    {
      "wav": "/mnt/w2g2/data_CRS/BoN10.1731R.1677983769.180905.4.42.wav",
      "labels": "Knock,Grunt,Croak"
    },
    {
      "wav": "/mnt/w2g2/data_CRS/BoN10.1731R.1677983769.180905.5.58.wav",
      "labels": "Grunt,Croak"
    },
    {
      "wav": "/mnt/w2g2/data_CRS/BoN10.2359D.805322778.180905.4.55.wav",
      "labels": "Croak"
    },
    {
      "wav": "/mnt/w2g2/data_CRS/BoN10.2359H.1678278701.180905.2.46.wav",
      "labels": "Whoop,Raspberry,Croak"
    },
    {
      "wav": "/mnt/w2g2/data_CRS/BoN10.2359H.1678278701.180905.4.54.wav",
      "labels": "Whoop,Croak"
    },
    {
      "wav": "/mnt/w2g2/data_CRS/BoN10.2359H.1678278701.180905.5.59.wav",
      "labels": "Knock,Whoop"
    },
    {
      "wav": "/mnt/w2g2/data_CRS/BoN10.2359R.1677983769.180905.2.29.wav",
      "labels": "Knock,Raspberry,Purr,Croak"
    },
    {
      "wav": "/mnt/w2g2/data_CRS/BoN10.2359R.1677983769.180905.3.41.wav",
      "labels": "Grunt,Croak"
    },
    {
      "wav": "/mnt/w2g2/data_CRS/BoN11.0529D.805322778.180906.4.32.wav",
      "labels": "Growl"
    },
    {
      "wav": "/mnt/w2g2/data_CRS/BoN11.0529D.805322778.180906.5.50.wav",
      "labels": "Growl"
    },
    {
      "wav": "/mnt/w2g2/data_CRS/BoN11.0529H.1678278701.180906.4.28.wav",
      "labels": "Growl"
    },
    {
      "wav": "/mnt/w2g2/data_CRS/BoN11.0529R.1677983769.180906.1.4.wav",
      "labels": "Raspberry"
    },
    {
      "wav": "/mnt/w2g2/data_CRS/BoN11.0529R.1677983769.180906.5.57.wav",
      "labels": "Growl,Hum"
    },
    {
      "wav": "/mnt/w2g2/data_CRS/BoN11.1103D.1678278701.180906.4.32.wav",
      "labels": "Scrape,Raspberry"
    },
    {
      "wav": "/mnt/w2g2/data_CRS/BoN11.1103D.1678278701.180906.5.52.wav",
      "labels": "Scrape"
    },
    {
      "wav": "/mnt/w2g2/data_CRS/BoN11.1103H.805322778.180906.1.2.wav",
      "labels": "Growl,Scrape"
    },
    {
      "wav": "/mnt/w2g2/data_CRS/BoN11.1103H.805322778.180906.2.15.wav",
      "labels": "Hum"
    },
    {
      "wav": "/mnt/w2g2/data_CRS/BoN11.1103H.805322778.180906.3.21.wav",
      "labels": "Raspberry"
    },
    {
      "wav": "/mnt/w2g2/data_CRS/BoN11.1103R.1677983769.180906.2.20.wav",
      "labels": "Scrape,Purr"
    },
    {
      "wav": "/mnt/w2g2/data_CRS/BoN11.1200H.805322778.180906.1.2.wav",
      "labels": "Scrape"
    },
    {
      "wav": "/mnt/w2g2/data_CRS/BoN11.1200H.805322778.180906.3.12.wav",
      "labels": "Scrape,Raspberry"
    },
    {
      "wav": "/mnt/w2g2/data_CRS/BoN11.1200R.1677983769.180906.1.1.wav",
      "labels": "Purr"
    },
    {
      "wav": "/mnt/w2g2/data_CRS/BoN11.1200R.1677983769.180906.2.3.wav",
      "labels": "Grunt,Purr,Hum"
    },
    {
      "wav": "/mnt/w2g2/data_CRS/BoN12.1220D.1678278701.180907.4.39.wav",
      "labels": "Grunt,Scrape"
    },
    {
      "wav": "/mnt/w2g2/data_CRS/BoN12.1220H.805322778.180907.3.10.wav",
      "labels": "Scrape"
    },
    {
      "wav": "/mnt/w2g2/data_CRS/BoN12.1220H.805322778.180907.4.36.wav",
      "labels": "Scrape"
    },
    {
      "wav": "/mnt/w2g2/data_CRS/BoN12.1220R.1677983769.180907.3.37.wav",
      "labels": "Knock"
    },
    {
      "wav": "/mnt/w2g2/data_CRS/SaF1.1733D.1677983769.180827.1.12.wav",
      "labels": "Scrape"
    },
    {
      "wav": "/mnt/w2g2/data_CRS/SaF1.1733D.1677983769.180827.3.23.wav",
      "labels": "Raspberry"
    },
    {
      "wav": "/mnt/w2g2/data_CRS/SaF1.1733R.805322778.180827.1.5.wav",
      "labels": "Grunt"
    },
    {
      "wav": "/mnt/w2g2/data_CRS/SaF1.1733R.805322778.180827.4.45.wav",
      "labels": "Knock"
    },
    {
      "wav": "/mnt/w2g2/data_CRS/SaF1.2333D.1677983769.180827.2.15.wav",
      "labels": "Purr,Croak"
    },
    {
      "wav": "/mnt/w2g2/data_CRS/SaF1.2333D.1677983769.180827.5.59.wav",
      "labels": "Croak"
    },
    {
      "wav": "/mnt/w2g2/data_CRS/SaF1.2333R.805322778.180827.2.13.wav",
      "labels": "Raspberry,Croak"
    },
    {
      "wav": "/mnt/w2g2/data_CRS/SaF1.2333R.805322778.180827.5.55.wav",
      "labels": "Croak"
    },
    {
      "wav": "/mnt/w2g2/data_CRS/SaF2.0534D.1677983769.180828.1.7.wav",
      "labels": "Croak"
    },
    {
      "wav": "/mnt/w2g2/data_CRS/SaF2.0534D.1677983769.180828.2.21.wav",
      "labels": "Croak"
    },
    {
      "wav": "/mnt/w2g2/data_CRS/SaF2.0534R.805322778.180828.4.37.wav",
      "labels": "Knock"
    },
    {
      "wav": "/mnt/w2g2/data_CRS/SaF2.0534R.805322778.180828.5.59.wav",
      "labels": "Knock,Grunt"
    },
    {
      "wav": "/mnt/w2g2/data_CRS/SaF2.1112D.1678278701.180828.5.49.wav",
      "labels": "Scrape"
    },
    {
      "wav": "/mnt/w2g2/data_CRS/SaF2.1112R.671907872.180828.5.49.wav",
      "labels": "Scrape"
    },
    {
      "wav": "/mnt/w2g2/data_CRS/SaF2.1203D.1678278701.180828.5.43.wav",
      "labels": "Grunt"
    },
    {
      "wav": "/mnt/w2g2/data_CRS/SaF3.1355D.805322778.180829.2.14.wav",
      "labels": "Grunt"
    },
    {
      "wav": "/mnt/w2g2/data_CRS/SaF3.1355D.805322778.180829.3.25.wav",
      "labels": "Whoop"
    },
    {
      "wav": "/mnt/w2g2/data_CRS/SaF3.1355R.1677983769.180829.3.35.wav",
      "labels": "Scrape,Croak"
    },
    {
      "wav": "/mnt/w2g2/data_CRS/SaF3.1355R.1677983769.180829.4.43.wav",
      "labels": "Scrape"
    },
    {
      "wav": "/mnt/w2g2/data_CRS/SaF3.1733R.1677983769.180829.3.23.wav",
      "labels": "Grunt"
    },
    {
      "wav": "/mnt/w2g2/data_CRS/SaF3.2333D.805322778.180829.4.44.wav",
      "labels": "Croak"
    },
    {
      "wav": "/mnt/w2g2/data_CRS/SaF3.2333R.1677983769.180829.1.4.wav",
      "labels": "Croak"
    },
    {
      "wav": "/mnt/w2g2/data_CRS/SaF4.0533D.805322778.180830.3.34.wav",
      "labels": "Knock,Croak"
    },
    {
      "wav": "/mnt/w2g2/data_CRS/SaF4.0533D.805322778.180830.4.41.wav",
      "labels": "Knock,Croak"
    },
    {
      "wav": "/mnt/w2g2/data_CRS/SaF4.0902R.805322778.180830.1.2.wav",
      "labels": "Grunt,Scrape"
    },
    {
      "wav": "/mnt/w2g2/data_CRS/SaF4.0902R.805322778.180830.3.31.wav",
      "labels": "Grunt,Scrape"
    },
    {
      "wav": "/mnt/w2g2/data_CRS/SaF5.1125D.1677983769.180831.2.6.wav",
      "labels": "Grunt"
    },
    {
      "wav": "/mnt/w2g2/data_CRS/SaF5.1125R.1678278701.180831.1.5.wav",
      "labels": "Scrape"
    },
    {
      "wav": "/mnt/w2g2/data_CRS/SaF5.1125R.1678278701.180831.2.7.wav",
      "labels": "Scrape"
    },
    {
      "wav": "/mnt/w2g2/data_CRS/SaF5.1125R.1678278701.180831.5.33.wav",
      "labels": "Scrape"
    },
    {
      "wav": "/mnt/w2g2/data_CRS/SaF5.1202D.1677983769.180831.3.24.wav",
      "labels": "Purr"
    },
    {
      "wav": "/mnt/w2g2/data_CRS/SaF5.1202R.1678278701.180831.1.6.wav",
      "labels": "Scrape"
    },
    {
      "wav": "/mnt/w2g2/data_CRS/SaN10.1345R.1678278701.180905.5.49.wav",
      "labels": "Grunt,Scrape"
    },
    {
      "wav": "/mnt/w2g2/data_CRS/SaN11.0940R.1677983769.180906.1.1.wav",
      "labels": "Scrape"
    },
    {
      "wav": "/mnt/w2g2/data_CRS/SaN11.0940R.1677983769.180906.4.25.wav",
      "labels": "Raspberry"
    },
    {
    "wav": "/mnt/w2g2/data_CRS/BaF1.1055R.805322778.180827.1.13.wav",
    "labels": "Scrape,Whoop"
    },
    {
    "wav": "/mnt/w2g2/data_CRS/BaF2.1733H.1677983769.180828.4.28.wav",
    "labels": "Raspberry"
    },
    {
    "wav": "/mnt/w2g2/data_CRS/BaF2.1733R.671907872.180828.2.23.wav",
    "labels": "Scrape"
    },
    {
    "wav": "/mnt/w2g2/data_CRS/BaF2.2333H.1677983769.180828.4.48.wav",
    "labels": "Raspberry,Purr,Laugh"
    },
    {
    "wav": "/mnt/w2g2/data_CRS/BaF2.2333R.671907872.180828.2.15.wav",
    "labels": "Scrape,Raspberry"
    },
    {
    "wav": "/mnt/w2g2/data_CRS/BaF4.1040H.1677983769.180830.4.35.wav",
    "labels": "Scrape"
    },
    {
    "wav": "/mnt/w2g2/data_CRS/BaF4.1040R.805322778.180830.1.2.wav",
    "labels": "Knock"
    },
    {
    "wav": "/mnt/w2g2/data_CRS/BaF5.2332H.671907872.180831.1.10.wav",
    "labels": "Raspberry,Purr"
    },
    {
    "wav": "/mnt/w2g2/data_CRS/BaN12.0529R.1677983769.180907.4.44.wav",
    "labels": "Knock"
    },
    {
    "wav": "/mnt/w2g2/data_CRS/BaN12.0915H.805322778.180907.5.59.wav",
    "labels": "Scrape"
    },
    {
    "wav": "/mnt/w2g2/data_CRS/BoF1.1315R.805322778.180827.4.49.wav",
    "labels": "Knock,Scrape,Raspberry"
    },
    {
    "wav": "/mnt/w2g2/data_CRS/BoF1.1328H.1678278701.180827.4.28.wav",
    "labels": "Knock"
    },
    {
    "wav": "/mnt/w2g2/data_CRS/BoF2.0930D.1678278701.180828.2.27.wav",
    "labels": "Growl,Grunt"
    },
    {
    "wav": "/mnt/w2g2/data_CRS/BoF3.1205R.1677983769.180829.1.11.wav",
    "labels": "Growl,Scrape"
    },
    {
    "wav": "/mnt/w2g2/data_CRS/BoF4.1300R.805322778.180830.1.12.wav",
    "labels": "Scrape,Raspberry,Purr"
    },
    {
    "wav": "/mnt/w2g2/data_CRS/BoF4.1733D.671907872.180830.4.40.wav",
    "labels": "Croak"
    },
    {
    "wav": "/mnt/w2g2/data_CRS/BoF4.1733R.805322778.180830.3.20.wav",
    "labels": "Growl,Grunt,Scrape"
    },
    {
    "wav": "/mnt/w2g2/data_CRS/BoF4.1733R.805322778.180830.4.22.wav",
    "labels": "Grunt,Scrape,Raspberry"
    },
    {
    "wav": "/mnt/w2g2/data_CRS/BoF4.2333H.1677983769.180830.5.54.wav",
    "labels": "Knock,Raspberry,Purr,Croak"
    },
    {
    "wav": "/mnt/w2g2/data_CRS/BoF4.2333R.805322778.180830.2.6.wav",
    "labels": "Knock,Raspberry,Purr,Croak"
    },
    {
    "wav": "/mnt/w2g2/data_CRS/BoF4.2333R.805322778.180830.4.30.wav",
    "labels": "Growl,Knock,Raspberry,Purr,Croak,Hum"
    },
    {
    "wav": "/mnt/w2g2/data_CRS/BoF5.0532D.671907872.180831.3.14.wav",
    "labels": "Growl"
    },
    {
    "wav": "/mnt/w2g2/data_CRS/BoF5.0532H.1677983769.180831.4.42.wav",
    "labels": "Growl,Grunt,Purr"
    },
    {
    "wav": "/mnt/w2g2/data_CRS/BoF5.0532R.805322778.180831.5.36.wav",
    "labels": "Growl,Raspberry"
    },
    {
    "wav": "/mnt/w2g2/data_CRS/BoF5.0940D.1677983769.180831.2.30.wav",
    "labels": "Growl"
    },
    {
    "wav": "/mnt/w2g2/data_CRS/BoN10.2359D.805322778.180905.3.42.wav",
    "labels": "Croak"
    },
    {
    "wav": "/mnt/w2g2/data_CRS/BoN10.2359D.805322778.180905.5.58.wav",
    "labels": "Croak"
    },
    {
    "wav": "/mnt/w2g2/data_CRS/BoN10.2359R.1677983769.180905.1.12.wav",
    "labels": "Grunt,Croak"
    },
    {
    "wav": "/mnt/w2g2/data_CRS/BoN11.0529R.1677983769.180906.4.45.wav",
    "labels": "Growl,Knock,Whoop"
    },
    {
    "wav": "/mnt/w2g2/data_CRS/BoN11.1103R.1677983769.180906.3.34.wav",
    "labels": "Growl,Knock,Purr,Hum,Laugh"
    },
    {
    "wav": "/mnt/w2g2/data_CRS/BoN11.1103R.1677983769.180906.5.50.wav",
    "labels": "Knock,Scrape,Purr,Croak"
    },
    {
    "wav": "/mnt/w2g2/data_CRS/BoN11.1200D.1678278701.180906.4.15.wav",
    "labels": "Scrape"
    },
    {
    "wav": "/mnt/w2g2/data_CRS/BoN11.1200D.1678278701.180906.5.20.wav",
    "labels": "Knock,Scrape"
    },
    {
    "wav": "/mnt/w2g2/data_CRS/BoN12.1220D.1678278701.180907.1.9.wav",
    "labels": "Scrape"
    },
    {
    "wav": "/mnt/w2g2/data_CRS/BoN12.1220R.1677983769.180907.4.46.wav",
    "labels": "Scrape,Raspberry"
    },
    {
    "wav": "/mnt/w2g2/data_CRS/SaF1.2333R.805322778.180827.3.25.wav",
    "labels": "Croak"
    },
    {
    "wav": "/mnt/w2g2/data_CRS/SaF2.0534D.1677983769.180828.3.26.wav",
    "labels": "Knock"
    }
  ]
}
